7 13 0 0 20 
7 11 0 0 18 
7 11 0 0 18 
7 10 0 0 17 
6 10 0 0 16 
4 7 2 3 16 
6 8 3 6 23 
6 9 5 8 28 
9 18 5 8 40 
14 23 5 7 49 
17 29 5 6 57 
19 34 5 6 64 
22 41 6 6 75 
21 35 8 11 75 
25 40 10 15 90 
32 41 13 22 108 
39 53 14 26 132 
56 76 18 32 182 
68 95 21 36 220 
95 118 20 36 269 
127 144 23 38 332 
146 163 28 51 388 
176 188 34 61 459 
193 202 46 79 520 
268 265 64 92 689 
317 321 87 109 834 
371 369 98 131 969 
446 442 115 152 1155 
545 565 134 173 1417 
600 632 175 206 1613 
693 689 213 243 1838 
827 804 265 292 2188 
989 954 325 353 2621 
1190 1134 394 419 3137 
1482 1352 458 494 3786 
1729 1669 534 574 4506 
2009 1935 627 666 5237 
2322 2277 766 771 6136 
2727 2705 924 935 7291 
3200 3248 1109 1087 8644 
3864 3832 1330 1313 10339 
4591 4575 1544 1529 12239 
5363 5318 1813 1798 14292 
6368 6297 2115 2094 16874 
7463 7361 2484 2457 19765 
8703 8571 2922 2938 23134 
10223 10110 3479 3463 27275 
12028 11927 4162 4094 32211 
14157 14163 4921 4785 38026 
16818 16664 5898 5676 45056 
19904 19533 6879 6730 53046 
23543 23191 7994 7888 62616 
27747 27519 9412 9299 73977 
32611 32372 11061 11022 87066 
38567 38493 13012 13007 103079 
45220 45622 15456 15328 121626 
53367 53837 18326 18112 143642 
62744 63287 21696 21436 169163 
73824 74574 25637 25294 199329 
87148 88060 30123 29901 235232 
103011 103709 35413 35343 277476 
