10 10 0 0 20 
10 10 0 0 20 
8 9 0 0 17 
8 8 0 0 16 
7 7 0 0 14 
5 3 2 3 13 
3 1 4 5 13 
9 6 6 6 27 
7 9 6 6 28 
17 20 6 6 49 
18 22 6 6 52 
23 26 6 6 61 
27 27 7 9 70 
31 42 6 11 90 
39 48 7 17 111 
56 70 11 23 160 
60 85 14 24 183 
70 90 16 27 203 
95 108 22 31 256 
116 118 28 39 301 
131 117 33 58 339 
176 146 44 66 432 
213 198 57 66 534 
255 237 67 77 636 
296 287 82 83 748 
352 332 96 98 878 
401 388 123 123 1035 
448 444 145 155 1192 
542 527 187 187 1443 
659 649 221 219 1748 
757 744 268 253 2022 
868 865 315 291 2339 
994 1040 374 338 2746 
1186 1206 433 406 3231 
1435 1416 509 484 3844 
1689 1595 606 571 4461 
1982 1876 709 679 5246 
2329 2240 826 788 6183 
2762 2643 954 911 7270 
3234 3105 1117 1058 8514 
3736 3696 1337 1253 10022 
4359 4383 1564 1490 11796 
5172 5172 1826 1733 13903 
6154 6092 2141 2059 16446 
7205 7086 2561 2471 19323 
8565 8442 2996 2881 22884 
10035 9869 3512 3424 26840 
11914 11631 4085 4031 31661 
14214 13886 4827 4781 37708 
16783 16481 5688 5631 44583 
19752 19436 6786 6631 52605 
23297 22962 8018 7871 62148 
27537 27299 9414 9213 73463 
32232 32071 11071 10876 86250 
37848 37860 13166 12856 101730 
44695 44835 15563 15202 120295 
52568 52944 18312 17894 141718 
61976 62266 21594 21099 166935 
72765 73696 25503 24996 196960 
85640 87223 30062 29491 232416 
101283 102639 35250 34825 273997 
