10 10 0 0 20 
10 10 0 0 20 
10 8 0 0 18 
8 8 0 0 16 
7 7 0 0 14 
3 3 4 4 14 
10 3 5 4 22 
12 5 7 5 29 
16 14 6 4 40 
21 13 6 4 44 
24 15 6 4 49 
24 15 6 5 50 
21 13 10 8 52 
26 17 11 9 63 
36 25 13 8 82 
38 32 15 8 93 
39 42 19 9 109 
45 45 18 9 117 
46 44 21 14 125 
52 47 25 16 140 
60 59 30 21 170 
64 64 39 27 194 
68 72 41 36 217 
96 90 48 41 275 
131 119 55 44 349 
150 142 62 48 402 
178 172 70 56 476 
221 220 71 62 574 
230 244 86 75 635 
266 293 106 93 758 
316 351 135 112 914 
352 433 150 134 1069 
444 513 175 166 1298 
538 587 192 190 1507 
639 689 224 227 1779 
773 788 249 275 2085 
911 912 283 329 2435 
1102 1128 349 377 2956 
1269 1311 412 445 3437 
1532 1596 502 521 4151 
1751 1852 593 611 4807 
2079 2135 705 722 5641 
2492 2617 843 852 6804 
2995 3146 1001 1015 8157 
3518 3608 1185 1215 9526 
4184 4188 1382 1481 11235 
5043 5059 1610 1747 13459 
6068 6012 1890 2052 16022 
7186 7024 2247 2402 18859 
8387 8236 2650 2830 22103 
9834 9799 3204 3283 26120 
11551 11505 3791 3882 30729 
13594 13587 4536 4636 36353 
16029 16088 5410 5459 42986 
19065 19143 6409 6457 51074 
22587 22484 7610 7613 60294 
26540 26546 8922 8992 71000 
31341 31120 10547 10589 83597 
37076 36872 12500 12511 98959 
43682 43505 14834 14874 116895 
51190 51214 17618 17446 137468 
