9 11 0 0 20 
8 9 0 0 17 
7 9 0 0 16 
7 9 0 0 16 
7 9 0 0 16 
6 4 1 3 14 
7 6 3 4 20 
2 3 6 5 16 
13 5 6 4 28 
12 11 6 3 32 
14 12 6 3 35 
11 11 6 1 29 
10 11 6 2 29 
5 10 9 3 27 
9 10 10 5 34 
16 16 11 7 50 
24 17 11 10 62 
30 24 11 11 76 
37 33 9 12 91 
57 50 7 10 124 
69 53 9 11 142 
57 50 17 12 136 
63 48 19 18 148 
59 53 28 25 165 
70 70 27 30 197 
95 101 35 38 269 
113 119 38 40 310 
143 146 43 45 377 
171 158 48 50 427 
190 175 58 60 483 
195 200 70 74 539 
220 220 87 91 618 
272 250 109 114 745 
345 310 125 128 908 
428 393 147 144 1112 
527 505 159 158 1349 
573 595 191 188 1547 
694 692 218 214 1818 
787 785 275 248 2095 
929 940 322 288 2479 
1056 1054 402 351 2863 
1246 1199 461 444 3350 
1498 1409 552 547 4006 
1862 1840 629 636 4967 
2159 2188 748 724 5819 
2596 2540 857 852 6845 
3044 3034 1003 955 8036 
3442 3385 1193 1157 9177 
3983 3924 1420 1386 10713 
4662 4595 1686 1634 12577 
5549 5407 2010 1931 14897 
6480 6420 2344 2329 17573 
7683 7751 2732 2700 20866 
9149 9320 3133 3138 24740 
10814 11030 3707 3683 29234 
12702 13034 4392 4314 34442 
15079 15368 5158 5082 40687 
17681 17826 6060 6052 47619 
20999 20940 7145 7153 56237 
24683 24921 8478 8446 66528 
29034 29259 10067 10056 78416 
